    0/99     289/289     0.158     0.191      9.71     0.321      10.4         8      1.43      0.12    0.0843      1.21      0.17      1.58      0.561      0.405      0.401
    1/99     289/289     0.109    0.0516     0.758     0.101      1.02         8    0.0195    0.0995     0.071      1.12     0.143      1.43       0.65      0.508      0.504
    2/99     289/289    0.0913    0.0414     0.657     0.084     0.874         8    0.0195    0.0894    0.0697      1.07      0.13      1.36      0.711      0.579      0.574
    3/99     289/289    0.0814    0.0362     0.597     0.075      0.79         8      0.02    0.0835     0.067      1.05     0.122      1.33      0.727      0.611      0.603
    4/99     289/289    0.0749    0.0328     0.553    0.0687     0.729         8    0.0217    0.0804    0.0642      1.05     0.118      1.31      0.734      0.627       0.62
    5/99     289/289    0.0701    0.0305     0.517    0.0633     0.681         8    0.0205    0.0795    0.0607      1.05     0.112       1.3      0.726      0.632      0.623
    6/99     289/289    0.0665    0.0286     0.485    0.0587     0.638         8    0.0207    0.0783    0.0597      1.05      0.11       1.3      0.725      0.636      0.628
    7/99     289/289    0.0636     0.027     0.457    0.0544     0.602         8      0.02    0.0774    0.0583      1.06     0.107       1.3      0.739      0.654      0.645
    8/99     289/289    0.0612    0.0258     0.432    0.0508     0.569         8    0.0224    0.0782    0.0555      1.09     0.101      1.32      0.735      0.648      0.638
    9/99     289/289     0.059    0.0246     0.409    0.0475      0.54         8    0.0164    0.0778    0.0545       1.1    0.0996      1.33      0.736      0.646      0.638
   10/99     289/289    0.0572    0.0237     0.386    0.0446     0.512         8    0.0186    0.0775     0.056      1.11     0.104      1.35      0.717      0.635      0.625
   11/99     289/289    0.0556     0.023     0.366    0.0418     0.486         8    0.0212    0.0772    0.0568      1.13     0.103      1.36      0.723      0.647      0.637
   12/99     289/289    0.0543    0.0222     0.346    0.0392     0.462         8    0.0203    0.0775      0.06      1.15     0.108      1.39      0.711      0.644      0.631
   13/99     289/289    0.0531    0.0216     0.327    0.0369     0.439         8     0.021    0.0771    0.0591      1.17     0.107      1.41      0.726      0.659      0.647
   14/99     289/289     0.052    0.0211      0.31    0.0345     0.417         8    0.0191     0.077    0.0615       1.2     0.101      1.44      0.725       0.66      0.649
   15/99     289/289    0.0509    0.0205     0.292    0.0324     0.396         8    0.0197    0.0766    0.0633      1.21       0.1      1.46      0.731      0.674      0.661
   16/99     289/289    0.0498    0.0203     0.277    0.0304     0.377         8    0.0204    0.0766     0.064      1.25     0.101      1.49      0.723      0.665      0.652
   17/99     289/289     0.049    0.0198     0.261    0.0286     0.358         8    0.0192    0.0776    0.0657      1.31       0.1      1.55      0.714      0.643      0.632
   18/99     289/289    0.0483    0.0197     0.247     0.027     0.341         8    0.0195     0.078    0.0717      1.38       0.1      1.63      0.718      0.639      0.628
   19/99     289/289    0.0475    0.0195     0.234    0.0254     0.326         8    0.0194    0.0788     0.068      1.43     0.104      1.68       0.71      0.614      0.605
   20/99     289/289    0.0468    0.0192     0.222     0.024     0.311         8    0.0188      0.08    0.0687      1.48     0.111      1.74      0.688      0.595      0.587
   21/99     289/289    0.0462     0.019      0.21    0.0227     0.298         8    0.0194    0.0793    0.0696      1.52     0.108      1.77      0.691      0.599      0.589
   22/99     289/289    0.0457    0.0186     0.197    0.0213     0.283         8     0.019    0.0816    0.0727      1.56     0.107      1.82      0.691      0.603      0.591
   23/99     289/289     0.045    0.0183     0.183    0.0198     0.266         8    0.0214    0.0827    0.0738      1.57     0.113      1.84      0.685      0.603      0.588
   24/99     289/289    0.0442    0.0179     0.173    0.0187     0.254         8    0.0209    0.0831     0.072      1.62      0.12       1.9        0.7       0.62      0.607
   25/99     289/289    0.0437    0.0179     0.162    0.0177     0.241         8    0.0211    0.0827    0.0699      1.64     0.109       1.9      0.699      0.625      0.609
   26/99     289/289     0.043    0.0175     0.152    0.0166     0.229         8    0.0189    0.0813    0.0689      1.69     0.108      1.95      0.705      0.624       0.61
   27/99     289/289    0.0423    0.0171      0.14    0.0155     0.215         8     0.019     0.079    0.0709      1.78     0.101      2.03      0.676       0.59      0.578
   28/99     289/289    0.0419    0.0168     0.132    0.0146     0.205         8    0.0195    0.0779    0.0709      1.77     0.103      2.02      0.689      0.599      0.587
   29/99     289/289    0.0413    0.0164      0.12    0.0136     0.192         8    0.0189    0.0776    0.0662      1.83       0.1      2.08        0.7      0.617      0.603
   30/99     289/289    0.0405    0.0159     0.111    0.0127      0.18         8    0.0189    0.0802    0.0671      1.96     0.102      2.21      0.709      0.623      0.608
   31/99     289/289    0.0397    0.0154     0.104    0.0119     0.171         8    0.0204    0.0803    0.0677      2.06     0.101      2.31      0.738      0.644       0.63
   32/99     289/289    0.0389    0.0149    0.0946    0.0113      0.16         8    0.0208    0.0837    0.0695      2.17     0.104      2.43      0.717      0.609      0.595
   33/99     289/289    0.0382    0.0146    0.0869    0.0106      0.15         8    0.0189    0.0833    0.0695      2.44     0.101       2.7      0.691      0.558      0.545
   34/99     289/289    0.0375    0.0144    0.0805   0.00999     0.142         8    0.0198    0.0837    0.0707       2.5     0.101      2.76       0.68      0.542      0.533
   35/99     289/289    0.0369    0.0142    0.0769   0.00952     0.137         8    0.0179    0.0826    0.0692      2.42    0.0991      2.67      0.684      0.565      0.554
   36/99     289/289     0.036    0.0138    0.0706   0.00884     0.129         8    0.0184    0.0807    0.0709      2.34     0.102       2.6      0.687      0.587      0.575
   37/99     289/289    0.0351    0.0135     0.064   0.00826     0.121         8    0.0186    0.0802    0.0675      2.34     0.101      2.58      0.723      0.635      0.621
   38/99     289/289    0.0344     0.013    0.0599   0.00783     0.115         8    0.0194    0.0799    0.0663      2.34    0.0978      2.58      0.737      0.647      0.635
   39/99     289/289    0.0335    0.0126    0.0548   0.00739     0.108         8    0.0194    0.0814    0.0683      2.39    0.0882      2.62      0.722      0.629      0.614
   40/99     289/289    0.0331    0.0122    0.0511   0.00706     0.103         8    0.0194    0.0811    0.0672      2.51     0.101      2.75      0.732      0.637      0.623
   41/99     289/289    0.0324     0.012    0.0502   0.00662     0.101         8    0.0187    0.0796    0.0707      2.46     0.094      2.71      0.718      0.621      0.608
   42/99     289/289    0.0317    0.0115    0.0458   0.00639    0.0955         8    0.0212    0.0804    0.0662      2.52    0.0871      2.75       0.72      0.622       0.61
   43/99     289/289    0.0308    0.0113    0.0415   0.00601    0.0897         8    0.0231    0.0813    0.0665       2.6    0.0906      2.83       0.71       0.61      0.598
   44/99     289/289      0.03    0.0108    0.0387   0.00563    0.0851         8    0.0205    0.0822     0.065      2.53    0.0932      2.77      0.727      0.635      0.622
   45/99     289/289    0.0295    0.0105    0.0359    0.0053    0.0812         8    0.0189    0.0812    0.0636      2.55    0.0914      2.79       0.75      0.661      0.648
   46/99     289/289    0.0286    0.0102    0.0322   0.00498     0.076         8    0.0217    0.0825    0.0621      2.63     0.105      2.88      0.725      0.648      0.634
   47/99     289/289    0.0279   0.00978    0.0291   0.00475    0.0715         8    0.0194    0.0815    0.0645      2.63     0.104      2.88      0.728      0.636      0.621
   48/99     289/289    0.0272   0.00953    0.0277    0.0045    0.0689         8    0.0219    0.0815    0.0638      2.71     0.104      2.96      0.727      0.624      0.613
   49/99     289/289    0.0264   0.00936    0.0256   0.00424    0.0656         8    0.0211    0.0818    0.0645      2.66     0.103      2.91      0.739      0.643      0.631
   50/99     289/289    0.0257   0.00902    0.0245   0.00408    0.0633         8     0.019     0.083    0.0649      2.69     0.101      2.94      0.731      0.647      0.634
   51/99     289/289     0.025   0.00877    0.0221   0.00388    0.0597         8    0.0211    0.0824     0.065      2.68     0.105      2.93      0.718      0.632      0.618
   52/99     289/289    0.0243   0.00851      0.02   0.00369    0.0565         8    0.0214    0.0836    0.0662      2.74     0.103      2.99      0.721      0.634      0.622
   53/99     289/289    0.0236   0.00822     0.018   0.00351    0.0533         8    0.0214    0.0835    0.0648      2.73     0.109      2.99      0.711      0.628      0.616
   54/99     289/289    0.0228   0.00796    0.0158   0.00334    0.0499         8    0.0198    0.0837    0.0646      2.78     0.108      3.03      0.713      0.622       0.61
   55/99     289/289    0.0221    0.0079    0.0145   0.00316    0.0477         8    0.0192    0.0827    0.0652      2.75     0.108      3.01      0.704      0.619      0.607
   56/99     289/289    0.0214   0.00776    0.0127   0.00302    0.0449         8    0.0198     0.083    0.0645      2.79     0.108      3.04       0.69      0.603      0.593
   57/99     289/289    0.0207   0.00772    0.0114    0.0029    0.0427         8    0.0197    0.0827     0.065      2.79     0.107      3.04      0.698      0.608      0.597
   58/99     289/289    0.0201   0.00787    0.0106   0.00279    0.0413         8    0.0203    0.0825    0.0655      2.78     0.108      3.03       0.69      0.604      0.593
   59/99     289/289    0.0195   0.00843      0.01    0.0027    0.0406         8    0.0208    0.0825    0.0658      2.77      0.11      3.03      0.688      0.602      0.591
   60/99     289/289     0.019   0.00913   0.00956   0.00264    0.0403         8    0.0191    0.0826    0.0687      2.77     0.112      3.04      0.682      0.596      0.585
   61/99     289/289    0.0185   0.00878   0.00916   0.00256     0.039         8    0.0203    0.0827    0.0731      2.77      0.11      3.04      0.685        0.6      0.589
   62/99     289/289    0.0179   0.00801   0.00868   0.00246    0.0371         8    0.0209     0.083    0.0753      2.77     0.108      3.04      0.685      0.601      0.589
   63/99     289/289    0.0174    0.0076   0.00833   0.00237    0.0357         8    0.0208    0.0831    0.0771      2.78     0.108      3.05      0.683      0.602      0.589
   64/99     289/289     0.017    0.0075   0.00802   0.00229    0.0348         8    0.0215    0.0833    0.0809      2.79     0.108      3.06      0.683      0.603      0.591
   65/99     289/289    0.0165   0.00764   0.00776   0.00223    0.0342         8     0.019    0.0835    0.0865       2.8      0.11      3.08      0.683        0.6      0.587
   66/99     289/289    0.0161   0.00796   0.00758   0.00218    0.0338         8    0.0195    0.0837    0.0934      2.81      0.11      3.09      0.677      0.597      0.582
   67/99     289/289    0.0158   0.00831   0.00741   0.00215    0.0336         8    0.0213    0.0838    0.0985      2.81     0.109       3.1       0.67      0.592      0.578
   68/99     289/289    0.0154   0.00864   0.00728   0.00211    0.0334         8    0.0191    0.0838    0.0956      2.81     0.105      3.09      0.669      0.591      0.578
   69/99     289/289    0.0151   0.00856    0.0071   0.00207    0.0328         8    0.0208    0.0839    0.0832      2.81     0.103      3.08      0.678        0.6      0.587
   70/99     289/289    0.0147   0.00802    0.0069   0.00202    0.0316         8    0.0202     0.084     0.075      2.83     0.103      3.09      0.686      0.603       0.59
   71/99     289/289    0.0143   0.00749    0.0067   0.00196    0.0305         8    0.0204     0.084    0.0709      2.84     0.102       3.1      0.689      0.602      0.589
   72/99     289/289     0.014   0.00714   0.00651    0.0019    0.0296         8    0.0214    0.0841    0.0696      2.86     0.102      3.11      0.685      0.599      0.587
   73/99     289/289    0.0137   0.00693   0.00635   0.00185    0.0288         8    0.0207    0.0843    0.0707      2.87     0.103      3.13      0.683      0.596      0.584
   74/99     289/289    0.0134   0.00687   0.00623   0.00182    0.0283         8    0.0205    0.0843     0.073      2.88     0.103      3.14      0.681      0.593      0.581
   75/99     289/289    0.0131    0.0069   0.00611   0.00178    0.0279         8    0.0192    0.0845    0.0759      2.89     0.102      3.15      0.679      0.593       0.58
   76/99     289/289    0.0128   0.00704   0.00602   0.00176    0.0276         8    0.0205    0.0846    0.0777      2.89     0.103      3.16      0.677      0.591      0.578
   77/99     289/289    0.0126   0.00727   0.00594   0.00174    0.0275         8    0.0206    0.0847    0.0782       2.9     0.104      3.16      0.678      0.591      0.578
   78/99     289/289    0.0123   0.00756   0.00585   0.00172    0.0275         8    0.0199    0.0848    0.0776      2.89     0.104      3.16      0.676      0.589      0.577
   79/99     289/289    0.0121   0.00784   0.00579    0.0017    0.0274         8    0.0219    0.0848    0.0769       2.9     0.105      3.16      0.679       0.59      0.577
   80/99     289/289    0.0119   0.00794   0.00572   0.00169    0.0272         8    0.0198     0.085    0.0772       2.9     0.106      3.17      0.674      0.586      0.572
   81/99     289/289    0.0116   0.00799   0.00566   0.00167     0.027         8    0.0211    0.0851    0.0778      2.89     0.106      3.16      0.673      0.587      0.574
   82/99     289/289    0.0114   0.00797    0.0056   0.00166    0.0267         8    0.0193    0.0852    0.0781       2.9     0.106      3.17      0.674      0.587      0.574
   83/99     289/289    0.0112   0.00808   0.00555   0.00165    0.0265         8    0.0199    0.0852    0.0784       2.9     0.108      3.17      0.676       0.59      0.576
   84/99     289/289    0.0111   0.00826   0.00553   0.00164    0.0265         8    0.0186    0.0852    0.0774       2.9     0.109      3.17      0.676      0.591      0.576
   85/99     289/289    0.0109   0.00859    0.0055   0.00164    0.0266         8    0.0186    0.0852    0.0736       2.9     0.109      3.17      0.676      0.588      0.574
   86/99     289/289    0.0107   0.00891   0.00548   0.00163    0.0268         8     0.019    0.0853    0.0702       2.9     0.107      3.16      0.677      0.587      0.575
   87/99     289/289    0.0106   0.00903   0.00544   0.00162    0.0267         8    0.0179    0.0854    0.0703       2.9     0.108      3.17      0.679      0.591      0.577
   88/99     289/289    0.0104    0.0089   0.00539    0.0016    0.0263         8    0.0223    0.0856    0.0736       2.9     0.108      3.17      0.679      0.591      0.577
   89/99     289/289    0.0102   0.00862   0.00531   0.00158    0.0258         8     0.019    0.0857    0.0771       2.9     0.107      3.17      0.674      0.585      0.571
   90/99     289/289    0.0101   0.00827   0.00524   0.00155    0.0251         8    0.0204    0.0859    0.0794      2.91     0.108      3.18      0.674      0.585      0.571
   91/99     289/289   0.00987    0.0079   0.00514   0.00152    0.0244         8    0.0206    0.0861    0.0791       2.9     0.107      3.18      0.679      0.591      0.576
   92/99     289/289   0.00969   0.00751   0.00506   0.00148    0.0237         8    0.0197    0.0862    0.0776      2.91     0.107      3.18       0.68      0.592      0.577
   93/99     289/289   0.00951   0.00717   0.00497   0.00145    0.0231         8    0.0212    0.0865    0.0755      2.91     0.107      3.18      0.679      0.592      0.578
   94/99     289/289   0.00933   0.00685   0.00489   0.00142    0.0225         8    0.0192    0.0866    0.0737      2.91     0.106      3.18      0.679      0.594      0.581
   95/99     289/289   0.00917   0.00663   0.00482   0.00139     0.022         8    0.0193    0.0868    0.0722      2.92     0.106      3.18      0.681      0.598      0.583
   96/99     289/289   0.00902   0.00644   0.00476   0.00137    0.0216         8    0.0216     0.087    0.0715      2.92     0.107      3.18      0.685      0.599      0.584
   97/99     289/289   0.00887    0.0063    0.0047   0.00134    0.0212         8    0.0192    0.0872    0.0712      2.92     0.107      3.19      0.682      0.593      0.579
   98/99     289/289   0.00873   0.00621   0.00465   0.00132    0.0209         8    0.0188    0.0876     0.071      2.93     0.107      3.19      0.683      0.593      0.579
   99/99     289/289    0.0086   0.00616    0.0046   0.00131    0.0207         8    0.0217    0.0877    0.0711      2.93     0.107       3.2      0.686      0.597      0.583
